{{#bln_charge}}
stream charges.str
{{/bln_charge}}

{{!

! orient structure
!! BTM, don't do this, it might muck with re-assembling the
!! structure for redox calculations
! coor orient

}}

! calculate energy
energy

{{ > write_out_structure }}
