{{ #restraints }}
{{ . }}
{{ /restraints }}

{{ > solvate_implicitly }}
{{ > use_shake }}

{{ #restraints }}
{{ . }}
{{ /restraints }}

{{ #pbc }}
{{ > setup_pbc }}
{{ /pbc }}

coor copy comp

{{ #use_qmmm }}
{{> (modelType) }}
{{ /use_qmmm }}
{{ ^use_qmmm }}
{{ #restrain_backbone }}
cons rmsd force {{ backbone_force }} sele type n .or. type ca .or. type c .or. type o end
{{ /restrain_backbone }}
{{ /use_qmmm }}

mini SD nstep {{ sd_steps }}
mini abnr nstep {{ abnr }} nprint 100 tolg {{ gradient_tolerance }}
coor rms

{{ #restrain_backbone }}
cons rmsd clear
{{ /restrain_backbone }}

{{ > write_out_structure }}
