{{! This template is the same for force, sp, and opt currently. }}
$rem
{{#symmetry}}
symmetry               {{symmetry}}
{{/symmetry}}
{{^symmetry}}
sym_ignore             true
{{/symmetry}}
exchange               {{exchange}}{{#correlation}}{{.}}{{/correlation}}
basis                  {{basis_set}}
jobtype                force
print_input            false
{{#qm_sel}}
qm_mm_interface        {{model_selected}}
force_field            read
user_connect           true {{! This must ALWAYS be true or our format will mess up}}
{{/qm_sel}}
$end

{{#qm_sel}}
$qm_atoms
{{.}}
$end

$force_field_params
Filename {{forcefield_path}}
$end
{{/qm_sel}}
