Structure: aqsq, Working Structure: aqsq, Action: Qchem-force

 Process 0 of 1 is on localhost - thread support 0
initial socket setup ...start
initial socket setup ...done
now start server 0 ...
                 Welcome to Q-Chem
    A Quantum Leap Into The Future Of Chemistry

Y. Shao, L. Fusti-Molnar, Y. Jung, J. Kussmann, C. Ochsenfeld,
S. T. Brown, A. T. B. Gilbert, L. V. Slipchenko,S. V. Levchenko,
D. P. O'Neill, R. A. DiStasio Jr., R. C. Lochan, T. Wang,
G. J. O. Beran, N. A. Besley, J. M. Herbert, C. Y. Lin,
T. Van Voorhis, S. H. Chien, A. Sodt, R. P. Steele,
V. A. Rassolov, P. E. Maslen, P. P. Korambath, R. D. Adamson,
B. Austin, J. Baker, E. F. C. Byrd, H. Dachsel, R. J. Doerksen,
A. Dreuw, B. D. Dunietz, A. D. Dutoi, T. R. Furlani,
S. R. Gwaltney, A. Heyden, S. Hirata, C.-P. Hsu, G. Kedziora,
R. Z. Khaliullin, P. Klunzinger, A. M. Lee, M. S. Lee, W. Liang,
I. Lotan, N. Nair, B. Peters, E. I. Proynov, P. A. Pieniazek,
Y. M. Rhee, J. Ritchie, E. Rosta, C. D. Sherrill,
A. C. Simmonett, J. E. Subotnik, H. L. Woodcock III,
W. Zhang, A. T. Bell, A. K. Chakraborty, D. M. Chipman,
F. J. Keil, A. Warshel, W. J. Hehre, H. F. Schaefer III,
J. Kong, A. I. Krylov, P. M. W. Gill, M. Head-Gordon,

Additional authors for Version 3.1:
Z. Gan, Y. Zhao, N. E. Schultz, D. Truhlar, E. Epifanovsky and M. Oana.

Additional authors for Version 3.2:
R. Baer, B. R. Brooks, D. Casanova, J.-D. Chai, C.-L. Cheng,
C. Cramer, D. Crittenden, A. Ghysels, G. Hawkins, E. G. Hohenstein,
C. Kelley, W. Kurlancheek, D. Liotard, E. Livshits, P. Manohar,
A. Marenich, D. Neuhauser, R. Olson, M. A. Rohrdanz, K. S. Thanthiriwatte,
A. J. W. Thom, V. Vanovschi, C. F. Williams, Q. Wu and Z.-Q. You.

Additional authors for Version 4.0:
A. Aspuru-Guzik, C. Chang, R. G. Edgar, E. Sundstrom, J. Parkhill, K. Lawler,
M. Gordon, M. Schmidt, N. Shenvi, D. Lambrecht, M. Goldey, R. Olivares-Amaya,
Y. Bernard, L. Vogt, M. Watson, J. Liu, S. Yeganeh, B. Kaduk, O. Vydrov, X. Xu,
I. Kaliman, K. Khistyaev, N. Russ, I.Y. Zhang, W.A. Goddard III, F. Liu, R. King ,
A. Landau, M. Wormit, A. Dreuw, M. Diedenhofen, A. Klamt, A.W. Lange, D. Ghosh,
D. Kosenkov, T. Kus, A. Landau, D. Zuev, J. Deng, S.P. Mao, Y.C. Su, D. Small,
L. D. Jacobson

Q-Chem, Version 4.0.1, Q-Chem, Inc., Pittsburgh, PA (2007).


Intel X86 Linux Version 4.0.1.0

Q-chem begins on Fri Oct 14 17:37:38 2016

Host:
0
Using version located at /v/apps/qchem/4.0e/bin/qchem

Parallel job on  1  processors

theFileMan(): MAXOPENFILES=974 MAX_SUB_FILE_NUM=16
Maximum size of a physical file is 2.0 GB, maximum size of a tmp-file is 32.0 GB

Finally everything over in PARseQInput
----------------------------------------------------
      Standard Nuclear Orientation (Angstroms)
   I     Atom         X            Y            Z
----------------------------------------------------
   1      C       0.000000     0.000000     0.000000
   2      H       0.000000    -0.890000    -0.629000
   3      H       0.000000     0.890000    -0.629000
   4      C      -1.225000     0.000000     0.866000
   5      H       0.890000     0.000000     0.629000
   6      H      -1.225000     0.898000     1.501000
   7      H      -1.225000    -0.898000     1.501000
   8      H      -2.123000     0.000000     0.231000
----------------------------------------------------
Nuclear Repulsion Energy =    42.6262678727 hartrees
There are        9 alpha and        9 beta electrons
Requested basis set is STO-3G
There are 10 shells and 16 basis functions

Total QAlloc Memory Limit   2000 MB
Mega-Array Size        61 MB
MEM_STATIC part        62 MB

                      Distance Matrix (Angstroms)
            C (  1)   H (  2)   H (  3)   C (  4)   H (  5)   H (  6)
  H (  2)  1.089835
  H (  3)  1.089835  1.780000
  C (  4)  1.500194  2.127851  2.127851
  H (  5)  1.089835  1.779540  1.779540  2.128237
  H (  6)  2.135423  3.038827  2.457151  1.099831  2.457644
  H (  7)  2.135423  2.457151  3.038827  1.099831  2.457644  1.796000
  H (  8)  2.135530  2.457403  2.457403  1.099831  3.039173  1.796026
            H (  7)
  H (  8)  1.796026

A cutoff of  1.0D-11 yielded     55 shell pairs
There are       148 function pairs
Smallest overlap matrix eigenvalue = 2.02E-01

 Scale SEOQF with 1.000000e-01/1.000000e+00/1.000000e+00

Standard Electronic Orientation quadrupole field applied
Nucleus-field energy     =    -0.0000000081 hartrees
Guess from superposition of atomic densities
Warning:  Energy on first SCF cycle will be non-variational
A restricted Hartree-Fock SCF calculation will be
performed using Pulay DIIS extrapolation
SCF converges when DIIS error is below 1.0E-08
---------------------------------------
 Cycle       Energy         DIIS Error
---------------------------------------
   1     -77.5831126114      2.47E-01
   2     -78.2919370324      1.42E-02
   3     -78.3028753754      3.69E-03
   4     -78.3035628668      4.45E-04
   5     -78.3035726895      1.65E-05
   6     -78.3035727067      1.63E-06
   7     -78.3035727069      2.66E-07
   8     -78.3035727069      3.29E-08
   9     -78.3035727069      2.14E-09 Convergence criterion met
---------------------------------------
SCF time:  CPU 0.04 s  wall 0.04 s
SCF   energy in the final basis set = -78.3035727069
Total energy in the final basis set = -78.3035727069
Analysis of SCF Wavefunction

--------------------------------------------------------------
                   Orbital Energies (a.u.)
--------------------------------------------------------------

Alpha MOs
-- Occupied --
-11.035 -11.034  -0.989  -0.800  -0.577  -0.577  -0.472  -0.454
-0.454
-- Virtual --
 0.650   0.650   0.708   0.714   0.786   0.787   0.787
--------------------------------------------------------------

         Ground-State Mulliken Net Atomic Charges

    Atom                 Charge (a.u.)
 ----------------------------------------
     1 C                    -0.173370
     2 H                     0.057592
     3 H                     0.057592
     4 C                    -0.164510
     5 H                     0.057586
     6 H                     0.055032
     7 H                     0.055032
     8 H                     0.055045
 ----------------------------------------
 Sum of atomic charges =     0.000000

-----------------------------------------------------------------
                   Cartesian Multipole Moments
-----------------------------------------------------------------
   Charge (ESU x 10^10)
                0.0000
   Dipole Moment (Debye)
        X       0.0035      Y       0.0000      Z      -0.0025
      Tot       0.0043
   Quadrupole Moments (Debye-Ang)
       XX     -14.4763     XY       0.0000     YY     -13.9596
       XZ       0.3654     YZ       0.0000     ZZ     -14.2193
   Octapole Moments (Debye-Ang^2)
      XXX      26.6265    XXY       0.0000    XYY       8.5596
      YYY       0.0000    XXZ      -6.7355    XYZ       0.0000
      YYZ      -6.0379    XZZ       9.0336    YZZ       0.0000
      ZZZ     -18.4892
   Hexadecapole Moments (Debye-Ang^3)
     XXXX     -93.6905   XXXY       0.0000   XXYY     -20.3574
     XYYY       0.0000   YYYY     -25.2629   XXXZ      26.5384
     XXYZ       0.0000   XYYZ       7.2795   YYYZ       0.0000
     XXZZ     -26.3675   XYZZ       0.0000   YYZZ     -12.7473
     XZZZ      24.1882   YZZZ       0.0000   ZZZZ     -60.2553
-----------------------------------------------------------------
Calculating analytic gradient of the SCF energy
Gradient of Coulomb and Exchange Energy
           1           2           3           4           5           6
   1  -2.8300386  -0.1691787  -0.1691787   2.8230416  -2.4354526   0.1664163
   2   0.0000000   2.2665043  -2.2665043  -0.0000000  -0.0000000  -2.2812979
   3   2.0010276   1.7204938   1.7204938  -1.9942970  -1.4813094  -1.7308802
           7           8
   1   0.1664163   2.4479744
   2   2.2812979   0.0000000
   3  -1.7308802   1.4953517
Gradient of SCF Energy
           1           2           3           4           5           6
   1  -0.0197296  -0.0050774  -0.0050774   0.0264008  -0.0002620   0.0051793
   2   0.0000000  -0.0048202   0.0048202   0.0000000  -0.0000000   0.0117689
   3   0.0139420   0.0002655   0.0002655  -0.0187575   0.0069182   0.0046660
           7           8
   1   0.0051793  -0.0066131
   2  -0.0117689  -0.0000000
   3   0.0046660  -0.0119655
Max gradient component =       2.640E-02
RMS gradient           =       9.874E-03
Gradient time:  CPU 0.06 s  wall 0.29 s
Archival summary:
1\1\learn\JobtypUnspecified\HF\STO-3G\26\schedd\FriOct1417:37:392016FriOct1417:37:392016\0\\#,JobtypUnspecified,HF,STO-3G,\\0,1\C\H,1,1.08984\H,1,1.08984,2,109.457\H,1,1.08984,2,109.457,3,-120.017,0\C,1,1.50019,2,109.492,3,119.991,0\H,5,1.09983,1,109.477,2,-180,0\H,5,1.09983,1,109.468,2,59.9973,0\H,5,1.09983,1,109.468,2,-59.9973,0\\HF=-78.3035727\\@

Total job time:  0.37s(wall), 0.13s(cpu)
Fri Oct 14 17:37:39 2016

       *************************************************************
       *                                                           *
       *  Thank you very much for using Q-Chem.  Have a nice day.  *
       *                                                           *
       *************************************************************
