  Process 0 of 1 is on localhost - thread support 0
initial socket setup ...start
initial socket setup ...done
now start server 0 ...
                  Welcome to Q-Chem
     A Quantum Leap Into The Future Of Chemistry

 Y. Shao, L. Fusti-Molnar, Y. Jung, J. Kussmann, C. Ochsenfeld,
 S. T. Brown, A. T. B. Gilbert, L. V. Slipchenko,S. V. Levchenko,
 D. P. O'Neill, R. A. DiStasio Jr., R. C. Lochan, T. Wang,
 G. J. O. Beran, N. A. Besley, J. M. Herbert, C. Y. Lin,
 T. Van Voorhis, S. H. Chien, A. Sodt, R. P. Steele,
 V. A. Rassolov, P. E. Maslen, P. P. Korambath, R. D. Adamson,
 B. Austin, J. Baker, E. F. C. Byrd, H. Dachsel, R. J. Doerksen,
 A. Dreuw, B. D. Dunietz, A. D. Dutoi, T. R. Furlani,
 S. R. Gwaltney, A. Heyden, S. Hirata, C.-P. Hsu, G. Kedziora,
 R. Z. Khaliullin, P. Klunzinger, A. M. Lee, M. S. Lee, W. Liang,
 I. Lotan, N. Nair, B. Peters, E. I. Proynov, P. A. Pieniazek,
 Y. M. Rhee, J. Ritchie, E. Rosta, C. D. Sherrill,
 A. C. Simmonett, J. E. Subotnik, H. L. Woodcock III,
 W. Zhang, A. T. Bell, A. K. Chakraborty, D. M. Chipman,
 F. J. Keil, A. Warshel, W. J. Hehre, H. F. Schaefer III,
 J. Kong, A. I. Krylov, P. M. W. Gill, M. Head-Gordon,

 Additional authors for Version 3.1:
 Z. Gan, Y. Zhao, N. E. Schultz, D. Truhlar, E. Epifanovsky and M. Oana.

 Additional authors for Version 3.2:
 R. Baer, B. R. Brooks, D. Casanova, J.-D. Chai, C.-L. Cheng,
 C. Cramer, D. Crittenden, A. Ghysels, G. Hawkins, E. G. Hohenstein,
 C. Kelley, W. Kurlancheek, D. Liotard, E. Livshits, P. Manohar,
 A. Marenich, D. Neuhauser, R. Olson, M. A. Rohrdanz, K. S. Thanthiriwatte,
 A. J. W. Thom, V. Vanovschi, C. F. Williams, Q. Wu and Z.-Q. You.

 Additional authors for Version 4.0:
 A. Aspuru-Guzik, C. Chang, R. G. Edgar, E. Sundstrom, J. Parkhill, K. Lawler,
 M. Gordon, M. Schmidt, N. Shenvi, D. Lambrecht, M. Goldey, R. Olivares-Amaya,
 Y. Bernard, L. Vogt, M. Watson, J. Liu, S. Yeganeh, B. Kaduk, O. Vydrov, X. Xu,
 I. Kaliman, K. Khistyaev, N. Russ, I.Y. Zhang, W.A. Goddard III, F. Liu, R. King ,
 A. Landau, M. Wormit, A. Dreuw, M. Diedenhofen, A. Klamt, A.W. Lange, D. Ghosh,
 D. Kosenkov, T. Kus, A. Landau, D. Zuev, J. Deng, S.P. Mao, Y.C. Su, D. Small,
 L. D. Jacobson

 Q-Chem, Version 4.0.1, Q-Chem, Inc., Pittsburgh, PA (2007).


 Intel X86 Linux Version 4.0.1.0

 Q-chem begins on Fri Oct 14 16:17:17 2016

Host:
0
 Using version located at /v/apps/qchem/4.0e/bin/qchem

 Parallel job on  1  processors

theFileMan(): MAXOPENFILES=974 MAX_SUB_FILE_NUM=16
Maximum size of a physical file is 2.0 GB, maximum size of a tmp-file is 32.0 GB

Finally everything over in PARseQInput
 ----------------------------------------------------
       Standard Nuclear Orientation (Angstroms)
    I     Atom         X            Y            Z
 ----------------------------------------------------
    1      O      19.736000    30.706000    18.656000
    2      O      10.879000    26.039000    -8.906000
    3      O      18.320000    24.816000    14.948000
    4      O       9.821000    13.442000     8.572000
    5      O       8.915000    15.602000    -3.388000
    6      O      17.505000    26.340000   -10.581000
    7      O      28.496000    23.515000    18.349000
    8      O      11.346000    24.175000     4.920000
    9      O       9.098000    16.119000     1.277000
   10      O      16.488000    29.195000    19.861000
   11      O      22.078000    25.894000    15.396000
   12      O       7.133000    14.448000     4.647000
   13      O      14.095000    28.151000    21.614000
   14      O      27.164000    31.710000    20.331000
   15      O      15.295000    11.873000    12.209000
   16      O      18.180000    16.604000     9.966000
   17      O       6.216000    17.035000     1.672000
   18      O       7.055000    25.519000    -2.053000
   19      O      12.454000    11.354000     9.415000
   20      O      11.492000    29.103000    20.090000
   21      O      14.220000    29.189000    20.392000
   22      O       6.138000    19.149000    13.844000
   23      O      17.315000     9.638000    13.392000
   24      O      18.951000    25.757000    12.989000
   25      O      20.460000    18.861000    12.664000
   26      O       3.529000    19.338000    12.599000
   27      O      16.223000    12.351000     9.406000
   28      O      12.989000    29.901000    -9.282000
   29      O      17.510000    30.569000    18.702000
   30      O      25.377000    12.891000    19.011000
   31      O      13.610000    15.742000    18.593000
   32      O      18.012000    32.598000    15.262000
   33      O       8.723000    13.216000     6.359000
   34      O      18.779000    13.814000    11.704000
   35      O      12.227000    25.192000   -10.299000
   36      O      12.292000    30.291000    27.102000
   37      O      20.170000    23.000000    12.999000
 ----------------------------------------------------
 Nuclear Repulsion Energy =  1821.3136643089 hartrees
 There are      148 alpha and      148 beta electrons
 Requested basis set is STO-3G
 There are 74 shells and 185 basis functions

Total QAlloc Memory Limit   2000 MB
Mega-Array Size        61 MB
MEM_STATIC part        62 MB
 A cutoff of  1.0D-11 yielded    225 shell pairs
 There are      1785 function pairs
 Smallest overlap matrix eigenvalue = 6.24E-01

  Scale SEOQF with 1.000000e-03/1.000000e-03/1.000000e-03

 Standard Electronic Orientation quadrupole field applied
 Nucleus-field energy     =     0.0000000731 hartrees
 Guess from superposition of atomic densities
 Warning:  Energy on first SCF cycle will be non-variational
 A restricted Kohn-Sham SCF calculation will be
 performed using Pulay DIIS extrapolation
 Exchange:  Becke88
 Using SG-1 standard quadrature grid
 SCF converges when DIIS error is below 1.0E-08
 Requested basis set is STO-3G
 There are 74 shells and 185 basis functions
 A cutoff of  1.0D-11 yielded    494 shell pairs
 There are      5717 function pairs
 ---------------------------------------
  Cycle       Energy         DIIS Error
 ---------------------------------------
    1   -2725.4553841719      5.34E-03
    2   -2692.0567244887      2.54E-02
    3   -2612.7451769370      2.81E-03
    4   -2593.5404760781      1.83E-02
    5   -2601.2992403579      2.88E-02
    6   -2599.9909481849      2.05E-02
    7   -2602.3217983501      2.01E-02
    8   -2601.0194167860      2.02E-02
    9   -2599.6185399053      2.13E-02
   10   -2595.6671557501      2.15E-02
   11   -2595.6705771775      2.15E-02
   12   -2599.9520609201      2.30E-02
   13   -2599.5538097979      2.37E-02
   14   -2599.7120102913      1.62E-02
   15   -2599.8205581976      1.71E-02
   16   -2599.8166487441      1.71E-02
   17   -2600.4054584127      2.23E-02
   18   -2600.4664753163      2.27E-02
   19   -2548.9435801278      1.68E-02
   20   -2615.1273920252      5.60E-03
   21   -2523.0326602365      1.49E-02
   22   -2592.9408494197      1.41E-02
   23   -2574.4145757201      2.18E-02
   24   -2604.9808460762      3.07E-02
   25   -2589.6300979293      2.93E-02
   26   -2584.6278592485      2.37E-02
   27   -2584.6258842120      2.37E-02
   28   -2575.1887177521      2.54E-02
   29   -2577.3345132481      1.89E-02
   30   -2591.4147880453      1.89E-02
   31   -2591.4248755085      1.88E-02
   32   -2577.1641851708      1.87E-02
   33   -2577.1456134197      1.83E-02
   34   -2588.1889866866      1.38E-02
   35   -2628.4508279369      2.13E-02
   36   -2596.3052816823      1.90E-02
   37   -2584.1510596818      1.22E-02
   38   -2542.3805089861      6.72E-03
   39   -2572.0052007034      1.50E-02
   40   -2607.2621400931      1.19E-02
   41   -2615.3432789658      1.04E-02
   42   -2608.2297773715      1.15E-02
   43   -2595.8194088800      7.96E-03
   44   -2600.9365540272      1.62E-02
   45   -2600.5557670157      1.60E-02
   46   -2603.0740230553      1.59E-02
   47   -2585.0088320881      1.44E-02
   48   -2574.8786162430      1.37E-02
   49   -2575.3526608533      1.30E-02
   50   -2575.3198977871      1.28E-02    Convergence failure

 Q-Chem fatal error occurred in module /u/shaoy/qchem/qchem.012213/qchem/scfman/scfman.C, line 3621:

 SCF failed to converge

p0_6905:  p4_error: interrupt SIGx: 6
